Chiffres détaillés    -      Salaires et revenus d'activité,,,,,,,,,,,,,,,,,,,,,,,,,
Départements,,,,,,,,,,,,,,,,,,,,,,,,,
Mise en ligne le 04/02/2020       Géographie au 01/01/2019,,,,,,,,,,,,,,,,,,,,,,,,,
"©Insee       Source(s) : Insee, DADS, fichier salariés au lieu de résidence.",,,,,,,,,,,,,,,,,,,,,,,,,
Code géographique,Libellé géographique,Salaire net horaire moyen en 2016 (€),Salaire net hor. Moy. Cadres sup. en 2016 (€),Salaire net hor. moy. prof inter. en 2016 (€),Salaire net hor. moy. employés en 2016 (€),Salaire net hor. moy. ouvriers en 2016 (€),Salaire net horaire moyen F en 2016 (€),Salaire net hor. moy. F cadres sup. en 2016 (€),Salaire net hor. moy. F prof inter. en 2016 (€),Salaire net hor. moy. F employés en 2016 (€),Salaire net hor. moy. F ouvriers en 2016 (€),Salaire net horaire moyen H en 2016 (€),Salaire net hor. moy. H cadres sup. en 2016 (€),Salaire net hor. moy. H prof inter. en 2016 (€),Salaire net hor. moy. H employés en 2016 (€),Salaire net hor. moy. H ouvriers en 2016 (€),Salaire net horaire moyen 18 à 25 ans en 2016 (€),Salaire net horaire moyen 26 à 50 ans en 2016 (€),Salaire net horaire moyen plus de 50 ans en 2016 (€),Salaire net horaire moyen F 18 à 25 ans en 2016 (€),Salaire net horaire moyen F 26 à 50 ans en 2016 (€),Salaire net horaire moyen F plus de 50 ans en 2016 (€),Salaire net horaire moyen H 18 à 25 ans en 2016 (€),Salaire net horaire moyen H 26 à 50 ans en 2016 (€),Salaire net horaire moyen H plus de 50 ans en 2016 (€)
CODGEO,LIBGEO,SNHM16,SNHMC16,SNHMP16,SNHME16,SNHMO16,SNHMF16,SNHMFC16,SNHMFP16,SNHMFE16,SNHMFO16,SNHMH16,SNHMHC16,SNHMHP16,SNHMHE16,SNHMHO16,SNHM1816,SNHM2616,SNHM5016,SNHMF1816,SNHMF2616,SNHMF5016,SNHMH1816,SNHMH2616,SNHMH5016
01,Ain,13.7,24.0,14.7,10.6,11.1,12.0,20.4,13.3,10.3,9.7,14.9,25.6,15.7,11.2,11.5,9.6,13.6,15.7,9.2,12.1,13.1,9.8,14.7,17.6
02,Aisne,12.7,22.6,14.4,10.3,11.1,11.4,19.3,13.1,10.0,9.9,13.4,24.0,15.3,10.8,11.4,9.4,12.4,14.4,9.0,11.3,12.5,9.7,13.1,15.5
03,Allier,12.2,22.2,13.9,9.9,10.8,11.0,18.9,12.8,9.7,9.6,13.1,23.7,14.7,10.4,11.0,9.2,12.0,14.0,8.8,10.8,12.1,9.5,12.7,15.4
04,Alpes-de-Haute-Provence,12.7,21.5,14.2,10.0,10.8,11.3,18.8,12.6,9.7,9.4,13.7,22.9,15.3,10.7,11.1,9.2,12.4,14.6,8.9,11.2,12.4,9.5,13.3,16.3
05,Hautes-Alpes,12.0,20.4,13.6,9.8,10.7,11.0,18.2,12.6,9.7,8.9,12.7,21.6,14.5,10.2,11.0,9.1,11.7,13.8,8.8,10.8,12.2,9.3,12.3,15.1
06,Alpes-Maritimes,14.4,24.9,15.0,10.7,11.1,12.8,21.2,14.0,10.5,9.4,15.7,26.9,15.9,11.0,11.4,9.6,14.1,17.0,9.2,12.8,14.2,10.0,15.2,19.3
07,Ardèche,12.7,22.8,14.3,10.0,10.8,11.2,18.9,12.8,9.8,9.7,13.7,24.3,15.3,10.7,11.0,9.3,12.5,14.6,9.1,11.1,12.1,9.5,13.4,16.3
08,Ardennes,12.7,22.7,14.5,10.1,11.3,11.2,19.0,12.9,9.8,10.1,13.5,24.2,15.4,10.9,11.5,9.5,12.5,14.2,9.0,11.2,12.2,9.8,13.3,15.4
09,Ariège,12.2,21.6,13.8,9.9,10.9,10.9,18.2,12.6,9.7,9.5,13.1,23.1,14.8,10.3,11.1,9.2,12.0,13.9,8.8,10.8,12.0,9.4,12.8,15.2
10,Aube,12.6,22.9,14.2,10.1,10.6,11.3,19.3,13.0,9.9,9.2,13.6,24.7,15.2,10.6,11.0,9.4,12.5,14.2,9.0,11.3,12.1,9.7,13.3,15.7
11,Aude,12.0,20.8,13.7,9.9,10.2,11.0,18.2,12.6,9.7,8.9,12.7,22.0,14.5,10.3,10.4,9.0,11.8,13.6,8.8,10.9,12.1,9.2,12.4,14.8
12,Aveyron,12.2,21.2,13.7,9.9,10.8,11.0,18.3,12.7,9.7,9.7,13.0,22.6,14.5,10.5,11.0,9.3,12.0,13.6,9.0,10.9,11.8,9.5,12.8,15.0
13,Bouches-du-Rhône,14.5,24.7,14.9,10.4,11.1,12.7,21.0,13.5,10.2,9.2,15.8,26.6,16.2,10.9,11.4,9.6,14.2,17.3,9.1,12.7,14.2,10.0,15.3,19.5
14,Calvados,13.0,23.4,14.2,10.1,10.8,11.7,19.9,13.1,9.9,9.7,14.0,25.1,15.2,10.6,11.0,9.3,12.8,15.1,9.0,11.7,13.0,9.6,13.7,16.7
15,Cantal,11.5,21.3,13.5,9.8,10.1,10.6,17.9,12.6,9.6,9.1,12.2,23.0,14.3,10.5,10.3,9.0,11.4,12.9,8.9,10.5,11.4,9.1,12.0,14.1
16,Charente,12.7,23.0,14.2,10.1,10.8,11.4,19.3,13.1,10.0,9.7,13.5,24.8,15.0,10.7,11.0,9.3,12.3,14.8,8.9,11.2,12.8,9.5,13.0,16.2
17,Charente-Maritime,12.6,23.1,14.0,10.1,10.6,11.3,19.4,12.9,9.9,9.4,13.5,24.8,14.9,10.5,10.8,9.1,12.3,14.6,8.8,11.3,12.5,9.3,13.1,16.2
18,Cher,12.7,22.1,14.1,10.2,10.8,11.4,18.8,13.0,10.0,9.6,13.6,23.5,14.9,10.6,11.1,9.5,12.4,14.5,9.2,11.2,12.3,9.7,13.1,15.9
19,Corrèze,12.5,21.9,14.0,9.9,10.6,11.2,19.0,12.9,9.8,9.6,13.3,23.3,14.9,10.4,10.9,9.3,12.2,14.1,8.9,11.1,12.2,9.5,13.0,15.5
21,Côte-d'Or,13.5,23.5,14.3,10.4,10.9,12.1,19.8,13.2,10.2,9.7,14.6,25.4,15.2,10.9,11.2,9.4,13.2,16.0,9.0,12.0,13.6,9.7,14.1,17.8
22,Côtes-d'Armor,12.5,22.5,14.0,10.1,10.5,11.2,19.0,12.8,9.8,9.6,13.3,23.9,14.8,10.7,10.7,9.3,12.3,14.3,9.0,11.1,12.3,9.5,13.0,15.8
23,Creuse,11.5,20.2,13.5,9.5,10.2,10.7,18.4,12.7,9.4,8.9,12.0,21.3,14.1,9.8,10.5,9.1,11.1,13.0,8.9,10.4,11.8,9.2,11.6,14.0
24,Dordogne,12.0,21.3,13.7,10.0,10.5,11.0,18.3,12.8,9.8,9.5,12.7,22.9,14.5,10.3,10.7,9.1,11.7,13.7,8.9,10.9,12.1,9.3,12.3,14.9
25,Doubs,13.0,22.5,14.0,10.2,11.1,11.4,19.1,12.7,10.0,9.8,14.1,23.9,15.0,10.7,11.4,9.4,12.9,14.8,8.9,11.4,12.5,9.8,13.9,16.5
26,Drôme,13.3,23.3,14.5,10.2,10.7,11.6,19.5,12.9,10.0,9.6,14.5,24.8,15.6,10.9,11.0,9.4,13.1,15.4,9.1,11.6,12.6,9.6,14.2,17.4
27,Eure,13.7,23.8,15.1,10.6,11.4,12.2,20.7,13.6,10.4,10.3,14.7,25.2,16.1,11.2,11.8,9.6,13.5,15.8,9.2,12.2,13.5,9.8,14.3,17.4
28,Eure-et-Loir,14.0,24.3,14.9,10.9,11.3,12.5,20.6,14.0,10.6,10.3,15.0,25.9,15.6,11.6,11.6,9.6,13.8,16.2,9.3,12.5,13.8,9.9,14.6,17.9
29,Finistère,12.8,22.6,13.8,10.0,10.6,11.4,19.1,12.8,9.8,9.5,13.8,24.2,14.6,10.5,10.9,9.2,12.5,14.8,9.0,11.4,12.4,9.5,13.4,16.7
2A,Corse-du-Sud,12.7,21.8,15.3,10.3,10.9,11.6,19.1,13.8,10.0,9.3,13.6,23.4,16.6,10.9,11.2,9.6,12.4,14.9,9.2,11.4,13.0,9.9,13.1,16.3
2B,Haute-Corse,12.6,21.4,15.6,10.2,10.7,11.3,18.8,13.2,9.9,9.0,13.5,22.8,17.6,10.7,10.9,9.5,12.2,14.6,9.0,11.1,12.7,9.9,13.0,15.9
30,Gard,13.2,23.2,14.5,10.1,10.9,11.6,19.7,13.1,9.9,9.4,14.3,24.7,15.5,10.8,11.1,9.2,12.9,15.6,8.9,11.6,12.9,9.4,13.8,17.5
31,Haute-Garonne,15.6,24.3,14.6,10.5,11.0,13.4,20.9,13.4,10.4,9.6,17.1,25.9,15.5,10.9,11.3,9.7,15.1,19.6,9.2,13.4,15.3,10.1,16.2,22.6
32,Gers,12.8,22.7,13.9,10.1,10.4,11.4,19.2,12.9,9.9,9.2,13.8,24.3,14.7,10.6,10.6,9.1,12.5,14.5,8.8,11.4,12.4,9.3,13.4,16.2
33,Gironde,14.2,23.9,14.5,10.5,10.9,12.5,20.2,13.4,10.3,9.4,15.4,25.7,15.5,11.0,11.2,9.5,13.9,17.1,9.1,12.5,14.1,9.9,15.0,19.3
34,Hérault,13.4,22.9,14.2,10.2,10.5,12.0,19.6,13.1,9.9,9.1,14.5,24.5,15.1,10.7,10.7,9.2,13.2,16.0,8.9,12.0,13.4,9.5,14.0,18.0
35,Ille-et-Vilaine,13.5,23.0,14.1,10.3,10.7,12.0,19.6,13.0,10.1,9.6,14.7,24.5,14.9,10.8,10.9,9.5,13.5,15.9,9.0,12.1,13.2,9.8,14.4,17.7
36,Indre,12.1,21.4,13.8,10.0,10.6,11.1,18.8,12.8,9.9,9.8,12.8,22.7,14.5,10.4,10.8,9.3,11.8,13.4,9.0,11.0,11.9,9.5,12.5,14.6
37,Indre-et-Loire,13.7,24.0,14.3,10.4,10.9,12.1,20.2,13.2,10.2,9.8,14.9,25.7,15.1,10.9,11.2,9.5,13.6,15.9,9.2,12.2,13.1,9.8,14.6,17.9
38,Isère,14.7,23.8,14.8,10.6,11.2,12.8,20.4,13.5,10.3,9.9,16.0,25.2,15.8,11.2,11.5,9.5,14.5,17.5,9.1,12.8,14.1,9.8,15.5,19.6
39,Jura,12.6,22.4,14.2,10.2,11.0,11.1,19.0,12.8,10.0,9.7,13.6,23.8,15.2,11.0,11.3,9.4,12.5,14.2,8.9,11.1,12.0,9.7,13.4,15.7
40,Landes,12.3,22.3,14.0,10.1,10.4,11.2,19.0,12.9,9.9,9.2,13.1,23.8,14.8,10.5,10.7,8.9,12.1,14.2,8.9,11.1,12.2,8.8,12.8,15.6
41,Loir-et-Cher,13.1,23.8,14.5,10.3,10.9,11.7,20.5,13.3,10.1,9.9,14.1,25.3,15.4,10.7,11.2,9.5,12.8,15.0,9.1,11.6,12.9,9.7,13.7,16.5
42,Loire,13.0,22.4,14.4,10.2,10.9,11.4,19.2,12.8,10.0,9.3,14.0,23.7,15.5,11.0,11.2,9.5,12.9,14.7,9.0,11.4,12.3,9.9,13.9,16.3
43,Haute-Loire,12.0,21.3,13.5,10.0,10.6,10.9,18.8,12.4,9.8,9.2,12.8,22.4,14.4,10.7,10.9,9.3,12.0,13.3,9.0,10.9,11.6,9.5,12.7,14.6
44,Loire-Atlantique,14.1,23.0,14.2,10.4,11.2,12.3,19.6,13.1,10.2,9.7,15.4,24.5,15.1,11.0,11.5,9.6,14.0,16.8,9.1,12.4,13.5,9.9,15.0,19.2
45,Loiret,13.8,23.6,14.8,10.5,11.1,12.4,20.3,13.8,10.4,10.1,14.8,25.3,15.7,10.9,11.4,9.7,13.5,16.1,9.3,12.3,13.8,10.0,14.4,17.9
46,Lot,12.3,21.7,13.6,9.7,10.5,11.1,18.8,12.7,9.6,9.6,13.2,23.1,14.4,10.0,10.7,9.3,12.0,13.9,9.1,11.0,12.0,9.4,12.8,15.5
47,Lot-et-Garonne,12.1,20.8,13.9,10.0,10.4,11.1,18.1,12.9,9.8,9.4,12.9,22.1,14.8,10.6,10.6,9.1,11.8,13.8,8.8,11.0,12.1,9.4,12.5,15.1
48,Lozère,11.4,19.4,13.2,10.0,10.1,10.8,17.3,12.6,9.8,8.6,12.0,20.6,13.8,10.5,10.3,9.0,11.3,12.8,9.0,10.6,11.8,9.0,11.8,13.8
49,Maine-et-Loire,12.7,22.7,13.9,10.2,10.5,11.3,19.0,12.8,10.0,9.5,13.7,24.4,14.7,10.8,10.8,9.4,12.6,14.6,9.0,11.4,12.3,9.6,13.4,16.2
50,Manche,12.7,22.6,14.4,10.0,11.0,11.2,19.4,12.8,9.8,9.5,13.7,24.0,15.5,10.7,11.2,9.4,12.5,14.6,9.0,11.2,12.2,9.8,13.3,16.2
51,Marne,13.6,23.8,14.7,10.5,11.4,12.2,20.1,13.5,10.3,10.0,14.6,25.8,15.7,10.9,11.6,9.5,13.4,15.9,9.1,12.2,13.5,9.8,14.2,17.6
52,Haute-Marne,12.1,21.7,13.8,10.0,10.9,10.9,18.9,12.6,9.8,9.7,12.8,23.1,14.7,10.8,11.1,9.5,11.9,13.6,9.0,10.9,11.9,9.8,12.5,14.6
53,Mayenne,12.3,22.8,13.9,10.0,10.7,11.1,18.8,12.7,9.8,9.7,13.2,24.7,14.7,10.5,11.0,9.4,12.2,14.1,9.0,11.1,12.0,9.6,12.9,15.5
54,Meurthe-et-Moselle,13.3,22.7,14.4,10.2,11.1,11.9,19.7,13.3,10.0,9.3,14.4,24.1,15.3,10.8,11.4,9.4,13.1,15.5,9.0,11.9,13.2,9.8,14.0,17.2
55,Meuse,12.3,21.9,14.2,9.9,11.1,10.9,18.7,12.8,9.7,9.6,13.2,23.4,15.2,10.6,11.3,9.3,12.1,13.8,8.9,10.9,11.9,9.6,12.9,14.9
56,Morbihan,12.6,22.9,14.1,10.1,10.6,11.3,19.2,12.9,9.9,9.6,13.6,24.6,14.9,10.6,10.9,9.3,12.5,14.4,8.9,11.3,12.2,9.6,13.3,16.0
57,Moselle,13.1,23.3,14.7,10.0,11.2,11.3,19.6,13.0,9.7,9.5,14.4,24.9,15.9,10.8,11.6,9.4,12.8,15.3,8.9,11.3,12.4,9.8,13.9,17.4
58,Nièvre,12.2,21.9,14.0,9.9,10.8,11.1,19.4,12.8,9.7,9.7,13.0,23.1,14.9,10.2,11.0,9.3,12.1,13.7,8.9,11.0,12.1,9.6,12.8,14.9
59,Nord,13.7,23.4,14.2,10.3,10.9,12.2,20.0,13.0,10.1,9.2,14.7,25.0,15.2,10.8,11.2,9.5,13.6,16.1,9.1,12.3,13.4,9.8,14.4,17.8
60,Oise,14.6,25.5,15.3,11.0,11.7,12.9,21.4,14.0,10.7,10.3,15.7,27.5,16.3,11.5,12.0,9.6,14.3,17.3,9.2,12.9,14.4,9.9,15.2,19.2
61,Orne,12.0,22.2,13.7,10.0,10.6,11.0,19.1,12.8,9.8,9.7,12.8,23.5,14.5,10.5,10.9,9.3,11.8,13.5,9.0,10.8,11.9,9.6,12.4,14.7
62,Pas-de-Calais,12.6,22.5,14.2,10.1,10.9,11.2,19.2,12.8,9.8,9.4,13.3,23.8,15.1,10.8,11.2,9.4,12.4,14.4,9.1,11.2,12.2,9.7,13.1,15.5
63,Puy-de-Dôme,14.0,23.7,14.7,10.6,11.6,12.4,20.3,13.5,10.4,10.0,15.1,25.3,15.7,11.2,11.9,9.9,13.7,16.6,9.2,12.3,13.9,10.3,14.6,18.4
64,Pyrénées-Atlantiques,13.6,24.8,14.5,10.3,11.1,11.8,20.2,13.2,10.1,9.5,14.9,26.9,15.5,10.9,11.4,9.3,13.2,16.1,9.0,11.8,13.0,9.6,14.3,18.4
65,Hautes-Pyrénées,12.2,21.3,13.9,9.9,10.8,10.9,18.4,12.7,9.7,9.3,13.2,22.6,14.8,10.4,11.0,9.2,11.9,13.7,8.9,10.8,11.7,9.4,12.8,15.3
66,Pyrénées-Orientales,12.1,21.5,13.5,10.1,10.4,11.2,18.6,12.7,9.8,9.1,12.9,23.1,14.4,10.6,10.6,9.0,11.9,13.9,8.9,11.0,12.3,9.2,12.5,15.3
67,Bas-Rhin,13.8,23.6,14.5,10.4,11.3,12.2,20.2,13.3,10.2,9.9,15.1,25.2,15.5,10.9,11.6,9.4,13.6,16.4,9.0,12.2,13.5,9.7,14.6,18.5
68,Haut-Rhin,13.4,23.8,14.6,10.2,11.4,11.6,19.8,13.1,9.9,9.8,14.8,25.5,15.8,10.9,11.8,9.4,13.2,15.7,8.9,11.6,12.7,9.9,14.4,17.8
69,Rhône,15.5,25.3,14.8,10.7,11.0,13.6,21.5,13.7,10.5,9.6,17.0,27.2,15.8,11.1,11.2,9.8,15.3,19.1,9.3,13.8,15.3,10.3,16.4,21.9
70,Haute-Saône,12.3,21.9,13.9,10.0,10.8,11.1,19.2,12.6,9.8,9.7,13.2,23.1,14.9,10.8,11.1,9.3,12.2,13.6,8.9,11.0,12.0,9.6,13.0,14.8
71,Saône-et-Loire,12.8,23.1,14.2,10.1,11.0,11.2,19.3,12.9,9.9,9.5,13.8,24.6,15.1,10.9,11.3,9.4,12.6,14.6,9.0,11.2,12.1,9.6,13.4,16.2
72,Sarthe,12.9,22.9,14.2,10.3,11.0,11.5,19.1,13.1,10.1,9.9,13.9,24.6,15.0,10.9,11.3,9.5,12.7,14.9,9.2,11.5,12.6,9.7,13.5,16.4
73,Savoie,14.0,23.9,14.6,10.8,11.8,12.1,19.9,13.2,10.5,9.7,15.2,25.7,15.6,11.4,12.2,9.7,13.7,16.4,9.1,12.1,13.4,10.1,14.7,18.5
74,Haute-Savoie,13.8,24.1,14.5,10.7,11.8,12.1,20.2,13.3,10.5,10.2,15.1,26.0,15.6,11.1,12.2,9.7,13.8,16.0,9.3,12.3,13.2,10.1,14.9,18.2
75,Paris,23.0,32.9,16.9,11.7,10.9,19.7,27.3,15.8,11.6,10.1,25.9,37.2,18.3,11.8,11.1,11.3,22.2,29.9,11.0,19.9,22.9,11.8,24.2,36.0
76,Seine-Maritime,13.9,24.2,15.1,10.4,11.8,12.1,20.2,13.5,10.2,10.0,15.0,26.1,16.2,11.0,12.1,9.7,13.7,16.3,9.2,12.1,13.4,10.1,14.6,18.2
77,Seine-et-Marne,15.3,24.6,15.6,11.4,11.9,13.6,21.1,14.6,11.2,10.1,16.5,26.5,16.5,11.7,12.3,9.8,14.9,18.4,9.5,13.6,15.6,10.1,15.9,20.3
78,Yvelines,20.5,31.6,16.4,11.7,11.7,17.1,25.5,15.4,11.6,9.8,23.0,35.0,17.3,11.8,12.0,10.3,19.3,26.8,9.8,17.0,19.9,10.8,20.9,31.4
79,Deux-Sèvres,13.0,23.4,14.0,10.8,10.4,12.2,21.7,13.3,10.6,9.2,13.5,24.3,14.6,11.3,10.6,9.3,12.8,14.8,9.0,12.1,13.6,9.5,13.3,15.7
80,Somme,12.9,22.6,14.2,10.2,11.1,11.5,19.4,13.0,10.0,9.7,13.7,24.0,15.1,10.8,11.4,9.5,12.8,14.7,9.1,11.5,12.6,9.8,13.5,15.9
81,Tarn,12.7,22.5,14.0,10.0,10.5,11.4,19.3,12.9,9.8,9.2,13.7,24.0,14.9,10.5,10.7,9.2,12.6,14.4,8.9,11.3,12.5,9.5,13.4,16.0
82,Tarn-et-Garonne,12.6,22.1,14.1,10.0,10.6,11.3,18.9,12.9,9.8,9.3,13.5,23.4,15.0,10.3,10.8,9.2,12.4,14.3,8.9,11.2,12.2,9.4,13.3,15.8
83,Var,13.1,23.0,14.3,10.2,10.7,11.7,19.7,13.1,10.0,9.2,14.3,24.5,15.3,10.7,10.9,9.2,12.9,15.4,8.9,11.7,12.9,9.4,13.8,17.3
84,Vaucluse,13.0,23.2,14.3,10.1,10.6,11.5,19.4,13.0,9.9,9.3,14.1,24.9,15.3,10.6,10.8,9.2,12.7,15.4,8.9,11.5,12.8,9.3,13.6,17.3
85,Vendée,12.1,22.3,13.6,10.1,10.6,10.9,19.1,12.5,9.8,9.7,13.0,23.6,14.4,10.8,10.9,9.3,12.1,13.6,9.0,11.0,11.7,9.5,12.9,15.0
86,Vienne,12.8,22.8,14.2,10.1,10.7,11.5,19.4,13.2,9.9,9.7,13.7,24.4,14.9,10.6,11.0,9.3,12.6,14.8,8.9,11.4,12.8,9.6,13.4,16.3
87,Haute-Vienne,12.8,22.3,13.9,10.1,10.7,11.7,19.3,13.1,9.9,9.5,13.6,23.8,14.5,10.6,10.9,9.2,12.5,14.9,9.0,11.6,13.1,9.4,13.2,16.3
88,Vosges,12.4,22.1,14.0,10.0,11.0,11.0,18.8,12.8,9.7,9.7,13.3,23.5,14.9,10.6,11.3,9.3,12.3,13.8,8.9,11.1,11.7,9.6,13.0,15.2
89,Yonne,12.6,22.8,14.3,10.2,10.8,11.4,19.4,13.1,10.0,9.8,13.5,24.3,15.2,10.7,11.1,9.5,12.3,14.5,9.1,11.2,12.6,9.7,13.1,15.9
90,Territoire de Belfort,14.4,24.5,14.4,10.2,11.2,12.0,20.0,13.2,10.0,9.7,15.8,26.1,15.3,10.8,11.6,9.5,14.1,16.9,9.0,12.2,12.8,9.9,15.3,19.5
91,Essonne,16.4,25.9,15.7,11.4,11.7,14.7,22.6,14.9,11.3,9.9,17.6,27.7,16.4,11.6,12.0,9.9,15.7,20.5,9.6,14.5,17.3,10.2,16.6,22.7
92,Hauts-de-Seine,22.3,31.5,16.5,11.9,11.3,19.5,26.9,16.0,11.9,10.1,24.7,34.9,17.1,11.9,11.6,10.7,21.5,28.6,10.3,19.5,22.8,11.1,23.2,33.3
93,Seine-Saint-Denis,13.4,22.5,14.7,10.6,10.8,13.0,20.8,14.3,10.7,9.5,13.7,23.6,15.2,10.4,11.1,9.6,13.3,15.1,9.4,13.1,14.5,9.7,13.5,15.6
94,Val-de-Marne,16.7,26.0,15.6,11.3,11.4,15.4,23.1,15.0,11.3,9.9,17.6,27.9,16.2,11.4,11.7,10.0,16.3,20.0,9.8,15.4,17.8,10.2,17.0,21.6
95,Val-d'Oise,15.4,25.1,15.5,11.2,11.5,14.2,21.9,14.8,11.2,9.8,16.3,26.9,16.1,11.2,11.8,9.7,15.0,18.7,9.5,14.1,16.4,10.0,15.6,20.3
971,Guadeloupe,14.0,27.3,15.9,11.3,11.1,13.1,23.6,15.1,11.1,9.3,14.8,30.0,16.8,11.8,11.4,9.0,13.4,16.4,9.0,12.8,14.7,9.0,14.1,17.8
972,Martinique,13.8,26.8,15.6,11.1,11.2,12.9,23.2,14.7,11.0,9.4,14.5,29.5,16.5,11.4,11.5,9.1,13.2,15.8,9.1,12.6,14.3,9.1,13.8,17.0
973,Guyane,14.5,27.8,17.1,11.3,11.1,13.6,23.9,15.6,11.2,9.1,15.1,30.0,18.2,11.3,11.3,9.4,14.0,18.2,9.4,13.5,16.3,9.4,14.4,19.1
974,La Réunion,12.8,25.4,14.8,10.4,10.8,12.2,22.1,14.2,10.3,8.9,13.3,27.3,15.4,10.6,11.0,8.7,12.7,15.7,8.6,12.2,14.2,8.7,13.0,16.5
